<svg xmlns="http://www.w3.org/2000/svg" xmlns:xlink="http://www.w3.org/1999/xlink" width="196" height="56" viewBox="0 0 196 56">
    <defs>
        <path id="a" d="M0 .048h64.798v39.774H0z"/>
    </defs>
    <g fill="none" fill-rule="evenodd">
        <path fill="#FEFEFE" d="M86.904 19.536a6.307 6.307 0 0 0-1.617-1.087 4.513 4.513 0 0 0-1.961-.44c-.528 0-1.015.1-1.463.304-.446.204-.67.555-.67 1.053 0 .475.246.815.74 1.019.493.204 1.29.43 2.39.679.642.136 1.29.329 1.944.577.654.25 1.244.578 1.773.986.526.407.95.906 1.272 1.494.321.59.482 1.29.482 2.106 0 1.064-.219 1.964-.654 2.7a5.312 5.312 0 0 1-1.703 1.782c-.7.454-1.485.782-2.357.986-.872.203-1.743.305-2.614.305-1.4 0-2.77-.22-4.111-.662-1.342-.441-2.46-1.092-3.355-1.953l3.165-3.294a6.296 6.296 0 0 0 1.858 1.358 5.216 5.216 0 0 0 2.34.544 3.1 3.1 0 0 0 1.359-.323c.447-.215.67-.594.67-1.138 0-.52-.275-.905-.826-1.155-.55-.248-1.41-.509-2.58-.78a13.47 13.47 0 0 1-1.788-.544 5.675 5.675 0 0 1-1.6-.917 4.557 4.557 0 0 1-1.153-1.427c-.299-.565-.447-1.244-.447-2.037 0-1.02.217-1.885.654-2.598a5.495 5.495 0 0 1 1.685-1.75 7.547 7.547 0 0 1 2.288-1.001A10.017 10.017 0 0 1 83.12 14c1.285 0 2.54.199 3.768.594 1.227.397 2.264.991 3.113 1.783l-3.096 3.159zM105.812 31.52v-2.223h-.069c-.55.867-1.334 1.534-2.353 2.001a7.701 7.701 0 0 1-3.247.702c-1.283 0-2.428-.251-3.436-.753a7.883 7.883 0 0 1-2.56-2.002 8.779 8.779 0 0 1-1.597-2.891 10.71 10.71 0 0 1-.55-3.422c0-1.186.19-2.321.567-3.405a8.876 8.876 0 0 1 1.615-2.858 7.645 7.645 0 0 1 2.543-1.95c.996-.48 2.113-.719 3.35-.719 1.259 0 2.324.24 3.194.719.87.479 1.547 1.004 2.028 1.574h.068V14.48H111v17.04h-5.188zm-.206-8.554a4.6 4.6 0 0 0-.292-1.608 4.53 4.53 0 0 0-.825-1.403 4.105 4.105 0 0 0-1.288-.993c-.505-.25-1.077-.376-1.718-.376-.665 0-1.249.125-1.752.376a4.019 4.019 0 0 0-1.272.976c-.343.399-.6.86-.773 1.385a5.145 5.145 0 0 0-.257 1.609c0 .547.086 1.09.257 1.625.172.536.43 1.01.773 1.42.344.411.768.742 1.272.993.503.251 1.087.376 1.752.376.641 0 1.213-.125 1.718-.376.504-.25.933-.582 1.288-.993.355-.41.63-.877.825-1.403.194-.524.292-1.06.292-1.608zM140.812 31.52v-2.223h-.069c-.55.867-1.334 1.534-2.353 2.001a7.701 7.701 0 0 1-3.247.702c-1.283 0-2.429-.251-3.436-.753a7.885 7.885 0 0 1-2.56-2.002 8.774 8.774 0 0 1-1.598-2.891 10.704 10.704 0 0 1-.549-3.422c0-1.186.189-2.321.567-3.405a8.872 8.872 0 0 1 1.614-2.858 7.646 7.646 0 0 1 2.543-1.95c.996-.48 2.113-.719 3.35-.719 1.26 0 2.325.24 3.195.719.87.479 1.546 1.004 2.028 1.574h.068V14.48H146v17.04h-5.188zm-.206-8.554c0-.548-.098-1.083-.293-1.608a4.527 4.527 0 0 0-.824-1.403 4.105 4.105 0 0 0-1.288-.993c-.505-.25-1.077-.376-1.718-.376-.665 0-1.25.125-1.753.376a4.019 4.019 0 0 0-1.27.976c-.344.399-.602.86-.774 1.385a5.145 5.145 0 0 0-.258 1.609c0 .547.086 1.09.258 1.625.172.536.43 1.01.773 1.42.344.411.767.742 1.271.993.504.251 1.088.376 1.753.376.64 0 1.213-.125 1.718-.376.503-.25.933-.582 1.288-.993.355-.41.63-.877.824-1.403.195-.524.293-1.06.293-1.608zM190.812 31.52v-2.223h-.069c-.55.867-1.334 1.534-2.353 2.001a7.7 7.7 0 0 1-3.247.702c-1.283 0-2.428-.251-3.436-.753a7.882 7.882 0 0 1-2.56-2.002 8.771 8.771 0 0 1-1.597-2.891 10.704 10.704 0 0 1-.55-3.422c0-1.186.19-2.321.567-3.405a8.872 8.872 0 0 1 1.615-2.858 7.643 7.643 0 0 1 2.542-1.95c.997-.48 2.113-.719 3.35-.719 1.26 0 2.325.24 3.195.719.87.479 1.547 1.004 2.028 1.574h.068V14.48H196v17.04h-5.188zm-.206-8.554c0-.548-.098-1.083-.292-1.608a4.527 4.527 0 0 0-.825-1.403 4.105 4.105 0 0 0-1.288-.993c-.504-.25-1.077-.376-1.718-.376-.665 0-1.249.125-1.752.376a4.019 4.019 0 0 0-1.272.976c-.343.399-.6.86-.773 1.385a5.145 5.145 0 0 0-.257 1.609c0 .547.085 1.09.257 1.625.172.536.43 1.01.773 1.42.344.411.768.742 1.272.993.503.251 1.087.376 1.752.376.641 0 1.214-.125 1.718-.376.503-.25.933-.582 1.288-.993.355-.41.63-.877.825-1.403.194-.524.292-1.06.292-1.608zM126.746 19.239a4.786 4.786 0 0 0-.782-.141 8.336 8.336 0 0 0-.745-.035c-.8 0-1.474.14-2.019.42-.545.281-.982.62-1.309 1.017a3.81 3.81 0 0 0-.709 1.298c-.146.467-.218.876-.218 1.226V32H115V14.514h5.746v2.53h.072a5.772 5.772 0 0 1 1.964-2.194c.848-.566 1.83-.85 2.945-.85.243 0 .48.012.71.035.23.024.418.06.563.106l-.254 5.098zM156 8.17c0 .447-.093.864-.28 1.252a3.226 3.226 0 0 1-.744 1.003c-.31.282-.682.506-1.116.67a3.809 3.809 0 0 1-1.36.246c-.993 0-1.824-.31-2.494-.934-.67-.622-1.006-1.367-1.006-2.236a2.957 2.957 0 0 1 1.006-2.22c.322-.282.694-.51 1.117-.686.423-.177.88-.265 1.378-.265.47 0 .924.083 1.359.247.434.164.806.387 1.116.67.311.28.559.615.745 1.003.186.388.279.805.279 1.25zM149.447 32h6.108V14.456h-6.108V32zM171.11 32h-6.22L158 15h6.363l3.69 11.026h.105L171.848 15H178zM77 39h5.778v1.399h-4.225v2.288h4.004v1.347h-4.004v2.543H83V48h-6zM92 39h3.128c.573 0 1.15.077 1.732.228a4.49 4.49 0 0 1 1.57.757c.465.351.843.814 1.134 1.386.29.572.436 1.282.436 2.13 0 .787-.146 1.465-.436 2.033a4.149 4.149 0 0 1-1.134 1.399 4.727 4.727 0 0 1-1.57.806c-.582.174-1.16.261-1.732.261H92v-9zm2.878 7.601c.408 0 .814-.048 1.221-.145a3.168 3.168 0 0 0 1.103-.496c.328-.233.597-.55.804-.948.208-.398.312-.902.312-1.512 0-.644-.104-1.169-.312-1.576a2.541 2.541 0 0 0-.804-.953A2.97 2.97 0 0 0 96.1 40.5a5.963 5.963 0 0 0-1.22-.127H93.57V46.6h1.308zM115 44.554c0 .528-.09 1.006-.27 1.431a3.22 3.22 0 0 1-.736 1.086c-.312.297-.68.526-1.106.688A3.91 3.91 0 0 1 111.5 48c-.5 0-.962-.08-1.387-.241A3.325 3.325 0 0 1 109 47.07a3.11 3.11 0 0 1-.737-1.086 3.702 3.702 0 0 1-.264-1.431V39h1.547v5.492c0 .256.033.51.099.762s.174.477.325.676c.152.198.352.359.602.483s.559.187.927.187c.369 0 .678-.063.927-.187.25-.124.45-.285.602-.483.152-.199.26-.424.326-.676.065-.251.098-.506.098-.762V39H115v5.554zM130.688 40.226a1.98 1.98 0 0 0-.896-.671 3.014 3.014 0 0 0-1.08-.212c-.45 0-.86.08-1.228.242a2.897 2.897 0 0 0-.95.665c-.266.282-.47.613-.614.992a3.45 3.45 0 0 0-.214 1.233c0 .469.068.896.209 1.283.138.387.337.72.595.998.257.278.566.495.926.647.36.154.764.23 1.215.23a2.72 2.72 0 0 0 1.239-.272c.36-.182.65-.422.87-.72l1.24.859a3.958 3.958 0 0 1-1.411 1.107c-.556.262-1.206.393-1.95.393-.68 0-1.304-.112-1.872-.333a4.3 4.3 0 0 1-1.466-.931 4.23 4.23 0 0 1-.958-1.428 4.733 4.733 0 0 1-.343-1.833c0-.685.12-1.304.361-1.856a4.14 4.14 0 0 1 .994-1.41 4.437 4.437 0 0 1 1.491-.895 5.388 5.388 0 0 1 2.737-.235 4.43 4.43 0 0 1 1.657.646c.245.162.453.356.625.582l-1.177.919zM142.839 39h1.36L148 48h-1.795l-.823-2.06h-3.827l-.798 2.06H139l3.839-9zm1.994 5.568l-1.358-3.661-1.384 3.66h2.742zM161.688 40.286a1.987 1.987 0 0 0-.896-.69 2.963 2.963 0 0 0-2.308.03 2.895 2.895 0 0 0-.95.684c-.266.29-.47.63-.614 1.02-.143.389-.214.811-.214 1.266 0 .481.068.92.209 1.317.138.398.337.739.595 1.025.257.286.566.508.926.665a3 3 0 0 0 1.215.236c.466 0 .878-.094 1.239-.28.36-.186.65-.433.87-.739l1.24.882a3.866 3.866 0 0 1-1.337 1.1c-.523.26-1.134.403-1.829.428l-.392.583a.811.811 0 0 1 .129-.012h.103c.156 0 .31.015.46.044.153.029.29.08.412.155a.87.87 0 0 1 .3.311c.079.132.118.306.118.521a.972.972 0 0 1-.16.566c-.107.153-.24.273-.398.36-.16.087-.34.15-.541.187a2.945 2.945 0 0 1-1.3-.038 2.791 2.791 0 0 1-.62-.23l.281-.596c.312.166.647.249 1.007.249.066 0 .139-.007.22-.02a.703.703 0 0 0 .228-.074.53.53 0 0 0 .178-.155.432.432 0 0 0 .073-.26.351.351 0 0 0-.067-.224.484.484 0 0 0-.166-.138.76.76 0 0 0-.208-.067 1.288 1.288 0 0 0-.441 0 1.375 1.375 0 0 0-.246.055l-.283-.31.626-.919a4.65 4.65 0 0 1-1.68-.448 4.369 4.369 0 0 1-1.314-.974 4.245 4.245 0 0 1-.852-1.417c-.201-.542-.301-1.137-.301-1.783 0-.704.12-1.34.361-1.907.243-.567.573-1.05.994-1.447a4.417 4.417 0 0 1 1.491-.92 5.26 5.26 0 0 1 2.737-.241 4.34 4.34 0 0 1 1.657.664c.244.166.453.365.625.597l-1.177.944zM173.839 38.346h1.359L179 47h-1.795l-.823-1.98h-3.827l-.798 1.98H170l3.839-8.654zm-1.62-.733c.033-.196.08-.387.142-.575.063-.187.148-.352.256-.494.108-.143.243-.258.406-.349.161-.09.359-.134.592-.134.166 0 .334.02.504.061.171.04.331.094.48.158.167.066.318.12.455.166.138.044.256.067.356.067.165 0 .292-.05.38-.153a.976.976 0 0 0 .193-.36h.823a4.017 4.017 0 0 1-.143.574 1.707 1.707 0 0 1-.256.495 1.287 1.287 0 0 1-.406.348c-.161.09-.359.135-.591.135-.175 0-.349-.024-.524-.073a4.834 4.834 0 0 1-.499-.17 3.981 3.981 0 0 0-.424-.16 1.224 1.224 0 0 0-.348-.062c-.167 0-.294.054-.381.16a1.047 1.047 0 0 0-.193.366h-.823zm3.614 6.087l-1.358-3.52-1.384 3.52h2.742zM187 42.475c0-.685.112-1.304.337-1.856a4.067 4.067 0 0 1 .935-1.41 4.12 4.12 0 0 1 1.418-.895 4.97 4.97 0 0 1 1.792-.314c.655 0 1.257.104 1.81.314.551.21 1.029.508 1.43.896.403.387.716.857.941 1.409.224.552.337 1.171.337 1.856 0 .671-.113 1.281-.337 1.833a4.243 4.243 0 0 1-.94 1.428c-.402.4-.88.71-1.431.931a4.824 4.824 0 0 1-1.81.333 4.743 4.743 0 0 1-1.792-.333 4.19 4.19 0 0 1-1.418-.931 4.256 4.256 0 0 1-.935-1.428 4.805 4.805 0 0 1-.337-1.833m1.62 0c0 .46.07.883.207 1.265.137.383.334.716.592.998.256.282.56.502.91.66.35.157.74.236 1.165.236a2.86 2.86 0 0 0 1.171-.237 2.7 2.7 0 0 0 .916-.66 2.95 2.95 0 0 0 .591-.997c.139-.382.207-.805.207-1.265 0-.443-.068-.854-.207-1.233a3.033 3.033 0 0 0-.585-.993 2.71 2.71 0 0 0-.91-.664 2.822 2.822 0 0 0-1.183-.242c-.434 0-.826.08-1.177.242-.35.161-.652.383-.905.664a3.02 3.02 0 0 0-.585.993c-.138.379-.207.79-.207 1.233"/>
        <path fill="#5E91CC" d="M28.591 56c-.43 0-.86-.112-1.245-.337L1.242 40.447A2.508 2.508 0 0 1 0 38.28c0-.895.473-1.722 1.242-2.17l33.921-19.772c.77-.45 1.72-.45 2.491 0l26.104 15.216A2.508 2.508 0 0 1 65 33.722a2.51 2.51 0 0 1-1.242 2.169L29.837 55.663A2.47 2.47 0 0 1 28.59 56zM7.454 38.279l21.137 12.32 28.955-16.877L36.409 21.4 7.454 38.279z"/>
        <path fill="#06B2CA" d="M28.952 46a2.26 2.26 0 0 1-1.13-.303L4.127 32.002a2.255 2.255 0 0 1 0-3.904l30.79-17.795a2.259 2.259 0 0 1 2.262 0l23.694 13.694a2.253 2.253 0 0 1 0 3.904l-30.79 17.796a2.26 2.26 0 0 1-1.13.303"/>
        <g>
            <mask id="b" fill="#fff">
                <use xlink:href="#a"/>
            </mask>
            <path fill="#FEFEFE" d="M28.502 39.822c-.428 0-.857-.111-1.241-.334L1.238 24.358A2.493 2.493 0 0 1 0 22.2c0-.89.472-1.711 1.238-2.157L35.054.384a2.469 2.469 0 0 1 2.483 0L63.56 15.512a2.494 2.494 0 0 1 1.238 2.157c0 .89-.472 1.711-1.238 2.157l-33.816 19.66a2.467 2.467 0 0 1-1.242.335zM7.431 22.201l21.071 12.251L57.367 17.67 36.296 5.418 7.43 22.201z" mask="url(#b)"/>
        </g>
    </g>
</svg>
